<?xml version="1.0" encoding="utf-8"?>
<!-- Generator: Adobe Illustrator 23.1.0, SVG Export Plug-In . SVG Version: 6.00 Build 0)  -->
<svg version="1.1" id="Layer_1" xmlns="http://www.w3.org/2000/svg" xmlns:xlink="http://www.w3.org/1999/xlink" x="0px" y="0px"
	 viewBox="0 0 145 89" style="enable-background:new 0 0 145 89;" xml:space="preserve">
<style type="text/css">
	.st0{fill:#FFFFFF;}
</style>
<path class="st0" d="M131.3,33c3.7-2.3,6.2-6.4,6.1-11.1c-0.1-7-5.9-12.5-12.9-12.4c-4.3,0.1-8,2.3-10.3,5.6C112,8.9,106,4.6,99,4.7
	C91.7,4.9,85.6,10.1,84,17c-0.9-0.2-1.7-0.2-2.6-0.2c-3.8,0.1-7.1,1.8-9.4,4.5c-2.3-2-5.3-3.1-8.5-3.1c-2.4,0.1-4.6,0.8-6.5,2
	c-1-4.6-5.1-8-10-7.9c-4.2,0.1-7.8,2.8-9.2,6.5c-1.5-0.6-3.2-0.9-5-0.9C26.9,17.9,22,22,20.7,27.5c-8.4,0.5-15,7.6-14.9,16.1
	c0.2,8.7,7.4,15.7,16.2,15.5c0.1,0,0.1,0,0.2,0c1.2,7.7,7.9,13.6,16,13.4c4.8-0.1,9.1-2.3,11.9-5.8l1.9,1.1
	c-0.1,0.7-0.1,1.5-0.1,2.3C52,78.9,59.3,85.8,68,85.6c7.1-0.1,13-5,14.9-11.4c2.8,2.3,6.4,3.6,10.3,3.5c8.6-0.2,15.4-7.2,15.5-15.7
	c2.3,1.6,4.9,2.8,7.8,3.3c10.1,1.6,19.6-5.2,21.2-15.3C138.8,43.4,136.1,37,131.3,33z M114.3,29.4c-0.6,0.2-1.2,0.4-1.8,0.6
	c-0.1-0.1-0.1-0.2-0.2-0.3c0.4-0.6,0.8-1.2,1.2-1.9C113.7,28.4,114,28.9,114.3,29.4z"/>
</svg>
