<?xml version="1.0" encoding="utf-8"?>
<!-- Generator: Adobe Illustrator 23.1.0, SVG Export Plug-In . SVG Version: 6.00 Build 0)  -->
<svg version="1.1" id="Layer_1" xmlns="http://www.w3.org/2000/svg" xmlns:xlink="http://www.w3.org/1999/xlink" x="0px" y="0px"
	 viewBox="0 0 926 183" style="enable-background:new 0 0 926 183;" xml:space="preserve">
<style type="text/css">
	.st0{fill:#BC8924;}
	.st1{fill:#E0B048;}
</style>
<path class="st0" d="M117.1,46.1c0,0,361-75,571,48l-39,65l-370,1L117.1,46.1z"/>
<path class="st1" d="M1.1,9.1c0,0,96-26,215,44c94.5,55.6,269,54,371,13s278-63,306-61s31.7,2.3,31.7,2.3v174H2.1L1.1,9.1z"/>
</svg>
